<?xml version="1.0" encoding="UTF-8" standalone="no"?>
<!-- Created with Inkscape (http://www.inkscape.org/) -->
<svg
   xmlns:dc="http://purl.org/dc/elements/1.1/"
   xmlns:cc="http://creativecommons.org/ns#"
   xmlns:rdf="http://www.w3.org/1999/02/22-rdf-syntax-ns#"
   xmlns:svg="http://www.w3.org/2000/svg"
   xmlns="http://www.w3.org/2000/svg"
   xmlns:sodipodi="http://sodipodi.sourceforge.net/DTD/sodipodi-0.dtd"
   xmlns:inkscape="http://www.inkscape.org/namespaces/inkscape"
   width="100"
   height="100"
   id="svg2"
   sodipodi:version="0.32"
   inkscape:version="0.46"
   version="1.0"
   inkscape:export-filename="/home/armin/src/Qt/tictactoe/icon.png"
   inkscape:export-xdpi="90"
   inkscape:export-ydpi="90"
   sodipodi:docname="icon.svg"
   inkscape:output_extension="org.inkscape.output.svg.inkscape">
  <defs
     id="defs4">
    <inkscape:perspective
       sodipodi:type="inkscape:persp3d"
       inkscape:vp_x="0 : 526.18109 : 1"
       inkscape:vp_y="0 : 1000 : 0"
       inkscape:vp_z="744.09448 : 526.18109 : 1"
       inkscape:persp3d-origin="372.04724 : 350.78739 : 1"
       id="perspective10" />
  </defs>
  <sodipodi:namedview
     id="base"
     pagecolor="#ffffff"
     bordercolor="#666666"
     borderopacity="1.0"
     gridtolerance="10000"
     guidetolerance="10"
     objecttolerance="10"
     inkscape:pageopacity="0.0"
     inkscape:pageshadow="2"
     inkscape:zoom="4.0764475"
     inkscape:cx="49.389585"
     inkscape:cy="48.217131"
     inkscape:document-units="px"
     inkscape:current-layer="layer1"
     showgrid="false"
     inkscape:window-width="1103"
     inkscape:window-height="775"
     inkscape:window-x="327"
     inkscape:window-y="0" />
  <metadata
     id="metadata7">
    <rdf:RDF>
      <cc:Work
         rdf:about="">
        <dc:format>image/svg+xml</dc:format>
        <dc:type
           rdf:resource="http://purl.org/dc/dcmitype/StillImage" />
      </cc:Work>
    </rdf:RDF>
  </metadata>
  <g
     inkscape:label="Layer 1"
     inkscape:groupmode="layer"
     id="layer1">
    <rect
       style="fill:#ffffff;fill-opacity:1;fill-rule:evenodd;stroke:#000000;stroke-width:0.99064916000000003px;stroke-linecap:butt;stroke-linejoin:miter;stroke-opacity:1"
       id="rect2383"
       width="89.548096"
       height="91.265282"
       x="6.3734269"
       y="4.8144097" />
    <path
       id="path2385"
       style="fill:none;fill-rule:evenodd;stroke:#000000;stroke-width:3;stroke-linecap:butt;stroke-linejoin:miter;stroke-opacity:1;stroke-miterlimit:4;stroke-dasharray:none"
       d="M 38.268616,9.4800063 L 11.284336,37.936156 M 11.529648,8.989383 L 38.75924,37.445532" />
    <path
       sodipodi:type="arc"
       style="fill:#000050;fill-opacity:0;stroke:#000000;stroke-opacity:1;stroke-width:3;stroke-miterlimit:4;stroke-dasharray:none"
       id="path3160"
       sodipodi:cx="-55.931053"
       sodipodi:cy="10.706564"
       sodipodi:rx="11.529647"
       sodipodi:ry="11.529647"
       d="M -44.401406,10.706564 A 11.529647,11.529647 0 1 1 -67.4607,10.706564 A 11.529647,11.529647 0 1 1 -44.401406,10.706564 z"
       transform="translate(107.93712,13.49214)" />
    <path
       d="M 90.519995,9.9706297 L 63.535715,38.42678 M 63.781027,9.4800062 L 91.010619,37.936156"
       style="fill:none;fill-rule:evenodd;stroke:#000000;stroke-width:3;stroke-linecap:butt;stroke-linejoin:miter;stroke-opacity:1;stroke-miterlimit:4;stroke-dasharray:none"
       id="path3162" />
    <path
       d="M 39.740486,63.448567 L 12.756205,91.904717 M 13.001518,62.957943 L 40.23111,91.414093"
       style="fill:none;fill-rule:evenodd;stroke:#000000;stroke-width:3;stroke-linecap:butt;stroke-linejoin:miter;stroke-opacity:1;stroke-miterlimit:4;stroke-dasharray:none"
       id="path3164" />
    <path
       transform="translate(107.4465,67.706012)"
       d="M -44.401406,10.706564 A 11.529647,11.529647 0 1 1 -67.4607,10.706564 A 11.529647,11.529647 0 1 1 -44.401406,10.706564 z"
       sodipodi:ry="11.529647"
       sodipodi:rx="11.529647"
       sodipodi:cy="10.706564"
       sodipodi:cx="-55.931053"
       id="path3166"
       style="fill:#000050;fill-opacity:0;stroke:#000000;stroke-opacity:1;stroke-width:3;stroke-miterlimit:4;stroke-dasharray:none"
       sodipodi:type="arc" />
    <path
       id="path3168"
       style="fill:none;fill-rule:evenodd;stroke:#000000;stroke-width:3;stroke-linecap:butt;stroke-linejoin:miter;stroke-opacity:1;stroke-miterlimit:4;stroke-dasharray:none"
       d="M 91.25593,64.675125 L 64.27165,93.131275 M 64.516962,64.184501 L 91.746554,92.640651" />
    <path
       transform="translate(79.48097,39.740485)"
       d="M -44.401406,10.706564 A 11.529647,11.529647 0 1 1 -67.4607,10.706564 A 11.529647,11.529647 0 1 1 -44.401406,10.706564 z"
       sodipodi:ry="11.529647"
       sodipodi:rx="11.529647"
       sodipodi:cy="10.706564"
       sodipodi:cx="-55.931053"
       id="path3170"
       style="fill:#000050;fill-opacity:0;stroke:#000000;stroke-opacity:1;stroke-width:3;stroke-miterlimit:4;stroke-dasharray:none"
       sodipodi:type="arc" />
    <path
       sodipodi:type="arc"
       style="fill:#000050;fill-opacity:0;stroke:#000000;stroke-opacity:1;stroke-width:3;stroke-miterlimit:4;stroke-dasharray:none"
       id="path3172"
       sodipodi:cx="-55.931053"
       sodipodi:cy="10.706564"
       sodipodi:rx="11.529647"
       sodipodi:ry="11.529647"
       d="M -44.401406,10.706564 A 11.529647,11.529647 0 1 1 -67.4607,10.706564 A 11.529647,11.529647 0 1 1 -44.401406,10.706564 z"
       transform="translate(134.9214,39.740485)" />
    <path
       d="M 64.762273,37.200222 L 37.777993,65.656372 M 38.023305,36.709598 L 65.252897,65.165748"
       style="fill:none;fill-rule:evenodd;stroke:#000000;stroke-width:3;stroke-linecap:butt;stroke-linejoin:miter;stroke-opacity:1;stroke-miterlimit:4;stroke-dasharray:none"
       id="path3174" />
  </g>
</svg>
